{
  "prepare_queue": {
    "installed": [],
    "uninstalled": []
  },
  "config_munge": {
    "files": {
      "res/xml/config.xml": {
        "parents": {
          "/*": [
            {
              "xml": "<feature name=\"AppCenterShared\"><param name=\"onload\" value=\"true\" /><param name=\"android-package\" value=\"com.microsoft.azure.mobile.cordova.AppCenterSharedPlugin\" /></feature>",
              "count": 1
            },
            {
              "xml": "<feature name=\"AppCenterAnalytics\"><param name=\"onload\" value=\"true\" /><param name=\"android-package\" value=\"com.microsoft.azure.mobile.cordova.AppCenterAnalyticsPlugin\" /></feature>",
              "count": 1
            },
            {
              "xml": "<feature name=\"AppCenterCrashes\"><param name=\"onload\" value=\"true\" /><param name=\"android-package\" value=\"com.microsoft.azure.mobile.cordova.AppCenterCrashesPlugin\" /></feature>",
              "count": 1
            },
            {
              "xml": "<feature name=\"Camera\"><param name=\"android-package\" value=\"org.apache.cordova.camera.CameraLauncher\" /></feature>",
              "count": 1
            },
            {
              "xml": "<feature name=\"Device\"><param name=\"android-package\" value=\"org.apache.cordova.device.Device\" /></feature>",
              "count": 1
            },
            {
              "xml": "<feature name=\"FacebookConnectPlugin\"><param name=\"android-package\" value=\"org.apache.cordova.facebook.ConnectPlugin\" /><param name=\"onload\" value=\"true\" /></feature>",
              "count": 1
            },
            {
              "xml": "<access origin=\"https://m.facebook.com\" />",
              "count": 1
            },
            {
              "xml": "<access origin=\"https://graph.facebook.com\" />",
              "count": 1
            },
            {
              "xml": "<access origin=\"https://api.facebook.com\" />",
              "count": 1
            },
            {
              "xml": "<access origin=\"https://*.fbcdn.net\" />",
              "count": 1
            },
            {
              "xml": "<access origin=\"https://*.akamaihd.net\" />",
              "count": 1
            },
            {
              "xml": "<preference name=\"android-minSdkVersion\" value=\"15\" />",
              "count": 1
            },
            {
              "xml": "<feature name=\"File\"><param name=\"android-package\" value=\"org.apache.cordova.file.FileUtils\" /><param name=\"onload\" value=\"true\" /></feature>",
              "count": 1
            },
            {
              "xml": "<allow-navigation href=\"cdvfile:*\" />",
              "count": 1
            },
            {
              "xml": "<feature name=\"FileTransfer\"><param name=\"android-package\" value=\"org.apache.cordova.filetransfer.FileTransfer\" /></feature>",
              "count": 1
            },
            {
              "xml": "<feature name=\"FilePath\"><param name=\"android-package\" value=\"com.hiddentao.cordova.filepath.FilePath\" /><param name=\"onload\" value=\"true\" /></feature>",
              "count": 1
            },
            {
              "xml": "<feature name=\"AndroidFullScreen\"><param name=\"android-package\" value=\"com.mesmotronic.plugins.FullScreenPlugin\" /></feature>",
              "count": 1
            },
            {
              "xml": "<feature name=\"NetworkStatus\"><param name=\"android-package\" value=\"org.apache.cordova.networkinformation.NetworkManager\" /></feature>",
              "count": 1
            },
            {
              "xml": "<feature name=\"SplashScreen\"><param name=\"android-package\" value=\"org.apache.cordova.splashscreen.SplashScreen\" /><param name=\"onload\" value=\"true\" /></feature>",
              "count": 1
            },
            {
              "xml": "<feature name=\"StatusBar\"><param name=\"android-package\" value=\"org.apache.cordova.statusbar.StatusBar\" /><param name=\"onload\" value=\"true\" /></feature>",
              "count": 1
            },
            {
              "xml": "<feature name=\"Whitelist\"><param name=\"android-package\" value=\"org.apache.cordova.whitelist.WhitelistPlugin\" /><param name=\"onload\" value=\"true\" /></feature>",
              "count": 1
            },
            {
              "xml": "<feature name=\"IBGPlugin\"><param name=\"android-package\" value=\"com.instabug.cordova.plugin.IBGPlugin\" /><param name=\"onload\" value=\"true\" /></feature>",
              "count": 1
            },
            {
              "xml": "<feature name=\"Keyboard\"><param name=\"android-package\" value=\"io.ionic.keyboard.IonicKeyboard\" /><param name=\"onload\" value=\"true\" /></feature>",
              "count": 1
            }
          ]
        }
      },
      "AndroidManifest.xml": {
        "parents": {
          "/manifest": [
            {
              "xml": "<uses-permission android:name=\"android.permission.INTERNET\" />",
              "count": 3
            },
            {
              "xml": "<uses-permission android:name=\"android.permission.ACCESS_NETWORK_STATE\" />",
              "count": 1
            },
            {
              "xml": "<uses-permission android:name=\"android.permission.WRITE_EXTERNAL_STORAGE\" />",
              "count": 1
            },
            {
              "xml": "<uses-permission android:name=\"android.permission.READ_EXTERNAL_STORAGE\" />",
              "count": 1
            },
            {
              "xml": "<uses-permission android:name=\"android.permission.ACCESS_WIFI_STATE\" />",
              "count": 1
            },
            {
              "xml": "<uses-permission android:name=\"android.permission.RECORD_AUDIO\" />",
              "count": 1
            },
            {
              "xml": "<uses-permission android:name=\"android.permission.MODIFY_AUDIO_SETTINGS\" />",
              "count": 1
            }
          ],
          "/*": [
            {
              "xml": "<uses-permission android:name=\"android.permission.WRITE_EXTERNAL_STORAGE\" />",
              "count": 4
            },
            {
              "xml": "<uses-permission android:name=\"android.permission.READ_EXTERNAL_STORAGE\" />",
              "count": 1
            },
            {
              "xml": "<uses-permission android:name=\"android.permission.ACCESS_NETWORK_STATE\" />",
              "count": 1
            }
          ],
          "application": [
            {
              "xml": "<provider android:authorities=\"${applicationId}.provider\" android:exported=\"false\" android:grantUriPermissions=\"true\" android:name=\"org.apache.cordova.camera.FileProvider\"><meta-data android:name=\"android.support.FILE_PROVIDER_PATHS\" android:resource=\"@xml/camera_provider_paths\" /></provider>",
              "count": 1
            },
            {
              "xml": "<meta-data android:name=\"com.facebook.sdk.ApplicationId\" android:value=\"@string/fb_app_id\" />",
              "count": 1
            },
            {
              "xml": "<meta-data android:name=\"com.facebook.sdk.ApplicationName\" android:value=\"@string/fb_app_name\" />",
              "count": 1
            },
            {
              "xml": "<provider android:authorities=\"${applicationId}.provider\" android:exported=\"false\" android:grantUriPermissions=\"true\" android:name=\"org.apache.cordova.camera.FileProvider\"><meta-data android:name=\"android.support.FILE_PROVIDER_PATHS\" android:resource=\"@xml/camera_provider_paths\" /></provider>",
              "count": 2
            }
          ],
          "/manifest/application": [
            {
              "xml": "<activity android:configChanges=\"keyboardHidden|orientation|screenSize\" android:launchMode=\"singleInstance\" android:name=\"com.instabug.cordova.plugin.IBGPluginActivity\" android:theme=\"@android:style/Theme.NoDisplay\" />",
              "count": 1
            },
            {
              "xml": "<service android:name=\"com.instabug.library.network.worker.uploader.InstabugSessionUploaderService\" />",
              "count": 1
            },
            {
              "xml": "<service android:name=\"com.instabug.bug.network.InstabugBugsUploaderService\" />",
              "count": 1
            },
            {
              "xml": "<service android:name=\"com.instabug.crash.network.InstabugCrashesUploaderService\" />",
              "count": 1
            },
            {
              "xml": "<service android:name=\"com.instabug.library.network.worker.fetcher.InstabugFeaturesFetcherService\" />",
              "count": 1
            },
            {
              "xml": "<service android:name=\"com.instabug.survey.network.service.InstabugSurveysSubmitterService\" />",
              "count": 1
            },
            {
              "xml": "<service android:name=\"com.instabug.library.internal.video.VideoProcessingService\" />",
              "count": 1
            },
            {
              "xml": "<service android:name=\"com.instabug.library.analytics.network.InstabugAnalyticsUploaderService\" />",
              "count": 1
            },
            {
              "xml": "<service android:name=\"com.instabug.chat.network.InstabugMessageUploaderService\" />",
              "count": 1
            }
          ]
        }
      },
      "res/values/facebookconnect.xml": {
        "parents": {
          "/*": [
            {
              "xml": "<string name=\"fb_app_id\">312222692689453</string>",
              "count": 1
            },
            {
              "xml": "<string name=\"fb_app_name\">PlasTick</string>",
              "count": 1
            }
          ]
        }
      }
    }
  },
  "installed_plugins": {
    "cordova-plugin-appcenter-shared": {
      "PACKAGE_NAME": "com.plas.tick"
    },
    "cordova-plugin-appcenter-analytics": {
      "PACKAGE_NAME": "com.plas.tick"
    },
    "cordova-plugin-appcenter-crashes": {
      "PACKAGE_NAME": "com.plas.tick"
    },
    "cordova-plugin-camera": {
      "ANDROID_SUPPORT_V4_VERSION": "27.+",
      "PACKAGE_NAME": "com.plas.tick"
    },
    "cordova-plugin-console": {
      "PACKAGE_NAME": "com.plas.tick"
    },
    "cordova-plugin-device": {
      "PACKAGE_NAME": "com.plas.tick"
    },
    "cordova-plugin-facebook4": {
      "APP_ID": "312222692689453",
      "APP_NAME": "PlasTick",
      "FACEBOOK_ANDROID_SDK_VERSION": "4.+",
      "PACKAGE_NAME": "com.plas.tick"
    },
    "cordova-plugin-file": {
      "PACKAGE_NAME": "com.plas.tick"
    },
    "cordova-plugin-file-transfer": {
      "PACKAGE_NAME": "com.plas.tick"
    },
    "cordova-plugin-filepath": {
      "PACKAGE_NAME": "com.plas.tick"
    },
    "cordova-plugin-fullscreen": {
      "PACKAGE_NAME": "com.plas.tick"
    },
    "cordova-plugin-network-information": {
      "PACKAGE_NAME": "com.plas.tick"
    },
    "cordova-plugin-splashscreen": {
      "PACKAGE_NAME": "com.plas.tick"
    },
    "cordova-plugin-statusbar": {
      "PACKAGE_NAME": "com.plas.tick"
    },
    "cordova-plugin-whitelist": {
      "PACKAGE_NAME": "com.plas.tick"
    },
    "instabug-cordova": {
      "PACKAGE_NAME": "com.plas.tick"
    },
    "ionic-plugin-keyboard": {
      "PACKAGE_NAME": "com.plas.tick"
    }
  },
  "dependent_plugins": {},
  "modules": [
    {
      "id": "cordova-plugin-appcenter-shared.AppCenter",
      "file": "plugins/cordova-plugin-appcenter-shared/www/AppCenter.js",
      "pluginId": "cordova-plugin-appcenter-shared",
      "clobbers": [
        "AppCenter"
      ]
    },
    {
      "id": "cordova-plugin-appcenter-analytics.Analytics",
      "file": "plugins/cordova-plugin-appcenter-analytics/www/Analytics.js",
      "pluginId": "cordova-plugin-appcenter-analytics",
      "clobbers": [
        "AppCenter.Analytics"
      ]
    },
    {
      "id": "cordova-plugin-appcenter-crashes.Crashes",
      "file": "plugins/cordova-plugin-appcenter-crashes/www/Crashes.js",
      "pluginId": "cordova-plugin-appcenter-crashes",
      "clobbers": [
        "AppCenter.Crashes"
      ]
    },
    {
      "id": "cordova-plugin-camera.Camera",
      "file": "plugins/cordova-plugin-camera/www/CameraConstants.js",
      "pluginId": "cordova-plugin-camera",
      "clobbers": [
        "Camera"
      ]
    },
    {
      "id": "cordova-plugin-camera.CameraPopoverOptions",
      "file": "plugins/cordova-plugin-camera/www/CameraPopoverOptions.js",
      "pluginId": "cordova-plugin-camera",
      "clobbers": [
        "CameraPopoverOptions"
      ]
    },
    {
      "id": "cordova-plugin-camera.camera",
      "file": "plugins/cordova-plugin-camera/www/Camera.js",
      "pluginId": "cordova-plugin-camera",
      "clobbers": [
        "navigator.camera"
      ]
    },
    {
      "id": "cordova-plugin-camera.CameraPopoverHandle",
      "file": "plugins/cordova-plugin-camera/www/CameraPopoverHandle.js",
      "pluginId": "cordova-plugin-camera",
      "clobbers": [
        "CameraPopoverHandle"
      ]
    },
    {
      "id": "cordova-plugin-device.device",
      "file": "plugins/cordova-plugin-device/www/device.js",
      "pluginId": "cordova-plugin-device",
      "clobbers": [
        "device"
      ]
    },
    {
      "id": "cordova-plugin-facebook4.FacebookConnectPlugin",
      "file": "plugins/cordova-plugin-facebook4/www/facebook-native.js",
      "pluginId": "cordova-plugin-facebook4",
      "clobbers": [
        "facebookConnectPlugin"
      ]
    },
    {
      "id": "cordova-plugin-file.DirectoryEntry",
      "file": "plugins/cordova-plugin-file/www/DirectoryEntry.js",
      "pluginId": "cordova-plugin-file",
      "clobbers": [
        "window.DirectoryEntry"
      ]
    },
    {
      "id": "cordova-plugin-file.DirectoryReader",
      "file": "plugins/cordova-plugin-file/www/DirectoryReader.js",
      "pluginId": "cordova-plugin-file",
      "clobbers": [
        "window.DirectoryReader"
      ]
    },
    {
      "id": "cordova-plugin-file.Entry",
      "file": "plugins/cordova-plugin-file/www/Entry.js",
      "pluginId": "cordova-plugin-file",
      "clobbers": [
        "window.Entry"
      ]
    },
    {
      "id": "cordova-plugin-file.File",
      "file": "plugins/cordova-plugin-file/www/File.js",
      "pluginId": "cordova-plugin-file",
      "clobbers": [
        "window.File"
      ]
    },
    {
      "id": "cordova-plugin-file.FileEntry",
      "file": "plugins/cordova-plugin-file/www/FileEntry.js",
      "pluginId": "cordova-plugin-file",
      "clobbers": [
        "window.FileEntry"
      ]
    },
    {
      "id": "cordova-plugin-file.FileError",
      "file": "plugins/cordova-plugin-file/www/FileError.js",
      "pluginId": "cordova-plugin-file",
      "clobbers": [
        "window.FileError"
      ]
    },
    {
      "id": "cordova-plugin-file.FileReader",
      "file": "plugins/cordova-plugin-file/www/FileReader.js",
      "pluginId": "cordova-plugin-file",
      "clobbers": [
        "window.FileReader"
      ]
    },
    {
      "id": "cordova-plugin-file.FileSystem",
      "file": "plugins/cordova-plugin-file/www/FileSystem.js",
      "pluginId": "cordova-plugin-file",
      "clobbers": [
        "window.FileSystem"
      ]
    },
    {
      "id": "cordova-plugin-file.FileUploadOptions",
      "file": "plugins/cordova-plugin-file/www/FileUploadOptions.js",
      "pluginId": "cordova-plugin-file",
      "clobbers": [
        "window.FileUploadOptions"
      ]
    },
    {
      "id": "cordova-plugin-file.FileUploadResult",
      "file": "plugins/cordova-plugin-file/www/FileUploadResult.js",
      "pluginId": "cordova-plugin-file",
      "clobbers": [
        "window.FileUploadResult"
      ]
    },
    {
      "id": "cordova-plugin-file.FileWriter",
      "file": "plugins/cordova-plugin-file/www/FileWriter.js",
      "pluginId": "cordova-plugin-file",
      "clobbers": [
        "window.FileWriter"
      ]
    },
    {
      "id": "cordova-plugin-file.Flags",
      "file": "plugins/cordova-plugin-file/www/Flags.js",
      "pluginId": "cordova-plugin-file",
      "clobbers": [
        "window.Flags"
      ]
    },
    {
      "id": "cordova-plugin-file.LocalFileSystem",
      "file": "plugins/cordova-plugin-file/www/LocalFileSystem.js",
      "pluginId": "cordova-plugin-file",
      "clobbers": [
        "window.LocalFileSystem"
      ],
      "merges": [
        "window"
      ]
    },
    {
      "id": "cordova-plugin-file.Metadata",
      "file": "plugins/cordova-plugin-file/www/Metadata.js",
      "pluginId": "cordova-plugin-file",
      "clobbers": [
        "window.Metadata"
      ]
    },
    {
      "id": "cordova-plugin-file.ProgressEvent",
      "file": "plugins/cordova-plugin-file/www/ProgressEvent.js",
      "pluginId": "cordova-plugin-file",
      "clobbers": [
        "window.ProgressEvent"
      ]
    },
    {
      "id": "cordova-plugin-file.fileSystems",
      "file": "plugins/cordova-plugin-file/www/fileSystems.js",
      "pluginId": "cordova-plugin-file"
    },
    {
      "id": "cordova-plugin-file.requestFileSystem",
      "file": "plugins/cordova-plugin-file/www/requestFileSystem.js",
      "pluginId": "cordova-plugin-file",
      "clobbers": [
        "window.requestFileSystem"
      ]
    },
    {
      "id": "cordova-plugin-file.resolveLocalFileSystemURI",
      "file": "plugins/cordova-plugin-file/www/resolveLocalFileSystemURI.js",
      "pluginId": "cordova-plugin-file",
      "merges": [
        "window"
      ]
    },
    {
      "id": "cordova-plugin-file.isChrome",
      "file": "plugins/cordova-plugin-file/www/browser/isChrome.js",
      "pluginId": "cordova-plugin-file",
      "runs": true
    },
    {
      "id": "cordova-plugin-file.androidFileSystem",
      "file": "plugins/cordova-plugin-file/www/android/FileSystem.js",
      "pluginId": "cordova-plugin-file",
      "merges": [
        "FileSystem"
      ]
    },
    {
      "id": "cordova-plugin-file.fileSystems-roots",
      "file": "plugins/cordova-plugin-file/www/fileSystems-roots.js",
      "pluginId": "cordova-plugin-file",
      "runs": true
    },
    {
      "id": "cordova-plugin-file.fileSystemPaths",
      "file": "plugins/cordova-plugin-file/www/fileSystemPaths.js",
      "pluginId": "cordova-plugin-file",
      "merges": [
        "cordova"
      ],
      "runs": true
    },
    {
      "id": "cordova-plugin-file-transfer.FileTransferError",
      "file": "plugins/cordova-plugin-file-transfer/www/FileTransferError.js",
      "pluginId": "cordova-plugin-file-transfer",
      "clobbers": [
        "window.FileTransferError"
      ]
    },
    {
      "id": "cordova-plugin-file-transfer.FileTransfer",
      "file": "plugins/cordova-plugin-file-transfer/www/FileTransfer.js",
      "pluginId": "cordova-plugin-file-transfer",
      "clobbers": [
        "window.FileTransfer"
      ]
    },
    {
      "id": "cordova-plugin-filepath.FilePath",
      "file": "plugins/cordova-plugin-filepath/www/FilePath.js",
      "pluginId": "cordova-plugin-filepath",
      "clobbers": [
        "window.FilePath"
      ]
    },
    {
      "id": "cordova-plugin-fullscreen.AndroidFullScreen",
      "file": "plugins/cordova-plugin-fullscreen/www/AndroidFullScreen.js",
      "pluginId": "cordova-plugin-fullscreen",
      "clobbers": [
        "AndroidFullScreen"
      ]
    },
    {
      "id": "cordova-plugin-network-information.network",
      "file": "plugins/cordova-plugin-network-information/www/network.js",
      "pluginId": "cordova-plugin-network-information",
      "clobbers": [
        "navigator.connection",
        "navigator.network.connection"
      ]
    },
    {
      "id": "cordova-plugin-network-information.Connection",
      "file": "plugins/cordova-plugin-network-information/www/Connection.js",
      "pluginId": "cordova-plugin-network-information",
      "clobbers": [
        "Connection"
      ]
    },
    {
      "id": "cordova-plugin-splashscreen.SplashScreen",
      "file": "plugins/cordova-plugin-splashscreen/www/splashscreen.js",
      "pluginId": "cordova-plugin-splashscreen",
      "clobbers": [
        "navigator.splashscreen"
      ]
    },
    {
      "id": "cordova-plugin-statusbar.statusbar",
      "file": "plugins/cordova-plugin-statusbar/www/statusbar.js",
      "pluginId": "cordova-plugin-statusbar",
      "clobbers": [
        "window.StatusBar"
      ]
    },
    {
      "id": "instabug-cordova.Instabug",
      "file": "plugins/instabug-cordova/www/instabug.js",
      "pluginId": "instabug-cordova",
      "clobbers": [
        "cordova.plugins.instabug"
      ]
    },
    {
      "id": "instabug-cordova.BugReporting",
      "file": "plugins/instabug-cordova/www/bugReporting.js",
      "pluginId": "instabug-cordova",
      "clobbers": [
        "cordova.plugins.bugReporting"
      ]
    },
    {
      "id": "instabug-cordova.FeatureRequests",
      "file": "plugins/instabug-cordova/www/featureRequests.js",
      "pluginId": "instabug-cordova",
      "clobbers": [
        "cordova.plugins.featureRequests"
      ]
    },
    {
      "id": "instabug-cordova.Surveys",
      "file": "plugins/instabug-cordova/www/surveys.js",
      "pluginId": "instabug-cordova",
      "clobbers": [
        "cordova.plugins.surveys"
      ]
    },
    {
      "id": "ionic-plugin-keyboard.keyboard",
      "file": "plugins/ionic-plugin-keyboard/www/android/keyboard.js",
      "pluginId": "ionic-plugin-keyboard",
      "clobbers": [
        "cordova.plugins.Keyboard"
      ],
      "runs": true
    }
  ],
  "plugin_metadata": {
    "cordova-plugin-appcenter-shared": "0.1.6",
    "cordova-plugin-appcenter-analytics": "0.1.7",
    "cordova-plugin-appcenter-crashes": "0.1.7",
    "cordova-plugin-camera": "4.0.4-dev",
    "cordova-plugin-console": "1.1.0",
    "cordova-plugin-device": "1.1.7",
    "cordova-plugin-facebook4": "2.5.0",
    "cordova-plugin-file": "6.0.1",
    "cordova-plugin-file-transfer": "1.7.1",
    "cordova-plugin-filepath": "1.0.2",
    "cordova-plugin-fullscreen": "1.1.0",
    "cordova-plugin-network-information": "1.3.4",
    "cordova-plugin-splashscreen": "4.1.0",
    "cordova-plugin-statusbar": "2.4.1",
    "cordova-plugin-whitelist": "1.3.3",
    "instabug-cordova": "1.10.0",
    "ionic-plugin-keyboard": "2.2.1"
  }
}